code/power/power_v6/parametric_results_20251209_153437/2x2_N16/run.log
========== RISC-V CPU Synthesis and Power Analysis ==========
Description: Parametric sweep: 2x2_N16
Using temporary results directory: temp_results_20251209_190720
Environment variable TEMP_RESULTS_DIR exported for TCL scripts
Execution started at Tue Dec  9 19:07:20 +0530 2025
Run metadata created: temp_results_20251209_190720/run_metadata.txt
========== Run metadata file created ==========
========== STEP 0: Git Pull ==========
hint: You have divergent branches and need to specify how to reconcile them.
hint: You can do so by running one of the following commands sometime before
hint: your next pull:
hint: 
hint:   git config pull.rebase false  # merge
hint:   git config pull.rebase true   # rebase
hint:   git config pull.ff only       # fast-forward only
hint: 
hint: You can replace "git config" with "git config --global" to set a default
hint: preference for all repositories. You can also pass --rebase, --no-rebase,
hint: or --ff-only on the command line to override the configured default per
hint: invocation.
fatal: Need to specify how to reconcile divergent branches.
Git pull completed successfully
========== STEP 1: VCS Compile (CPU) ==========
Copied instruction_mem.hex to simulation directory
                         Chronologic VCS (TM)
       Version W-2024.09-SP1_Full64 -- Tue Dec  9 19:07:25 2025

                    Copyright (c) 1991 - 2024 Synopsys, Inc.
   This software and the associated documentation are proprietary to Synopsys,
 Inc. This software may only be used in accordance with the terms and conditions
 of a written license agreement with Synopsys, Inc. All other use, reproduction,
   or distribution of this software is strictly prohibited.  Licensed Products
     communicate with Synopsys servers for the purpose of providing software
    updates, detecting software piracy and verifying that customers are using
    Licensed Products in conformity with the applicable License Key for such
  Licensed Products. Synopsys will use information gathered in connection with
    this process to deliver software updates and pursue software pirates and
                                   infringers.

 Inclusivity & Diversity - Visit SolvNetPlus to read the "Synopsys Statement on
            Inclusivity and Diversity" (Refer to article 000036315 at
                        https://solvnetplus.synopsys.com)

Warning : License for product VCS-BASE-COMPILE will expire within 23 days, on: 31-dec-2025.

If you would like to temporarily disable this message, set 
 the VCS_LIC_EXPIRE_WARNING environment variable to the number of days
before expiration that you want this message to start (the minimum is 0).
Parsing design file 'mesh_tb.v'
Parsing included file 'mesh.v'.
Parsing included file '../node/node.v'.
Parsing included file '../cpu_core/cpu/cpu.v'.
Parsing included file '../cpu_core/alu/alu.v'.
Back to file '../cpu_core/cpu/cpu.v'.
Parsing included file '../cpu_core/fpu/fpu.v'.
Parsing included file '../../accelerator/cpu_core/fpu/Addition_Subtraction.v'.
Parsing included file '../../accelerator/cpu_core/fpu/Priority_Encoder.v'.
Back to file '../../accelerator/cpu_core/fpu/Addition_Subtraction.v'.
Back to file '../cpu_core/fpu/fpu.v'.
Parsing included file '../../accelerator/cpu_core/fpu/Multiplication.v'.
Back to file '../cpu_core/fpu/fpu.v'.
Parsing included file '../../accelerator/cpu_core/fpu/Division.v'.
Parsing included file '../../accelerator/cpu_core/fpu/Iteration.v'.
Back to file '../../accelerator/cpu_core/fpu/Division.v'.
Back to file '../cpu_core/fpu/fpu.v'.
Parsing included file '../../accelerator/cpu_core/fpu/Comparison.v'.
Back to file '../cpu_core/fpu/fpu.v'.
Parsing included file '../../accelerator/cpu_core/fpu/Converter.v'.
Back to file '../cpu_core/fpu/fpu.v'.
Back to file '../cpu_core/cpu/cpu.v'.
Parsing included file '../cpu_core/reg_file/reg_file.v'.
Back to file '../cpu_core/cpu/cpu.v'.
Parsing included file '../cpu_core/f_reg_file/f_reg_file.v'.
Back to file '../cpu_core/cpu/cpu.v'.
Parsing included file '../cpu_core/immediate_generation_unit/immediate_generation_unit.v'.
Back to file '../cpu_core/cpu/cpu.v'.
Parsing included file '../cpu_core/control_unit/control_unit.v'.
Parsing included file '../../accelerator/cpu_core/alu/../support_modules/mux_2to1_3bit.v'.
Back to file '../cpu_core/control_unit/control_unit.v'.
Back to file '../cpu_core/cpu/cpu.v'.
Parsing included file '../cpu_core/branch_control_unit/branch_control_unit.v'.
Back to file '../cpu_core/cpu/cpu.v'.
Parsing included file '../cpu_core/forwarding_units/ex_forward_unit.v'.
Back to file '../cpu_core/cpu/cpu.v'.
Parsing included file '../cpu_core/forwarding_units/mem_forward_unit.v'.
Back to file '../cpu_core/cpu/cpu.v'.
Parsing included file '../cpu_core/hazard_detection_unit/hazard_detection_unit.v'.
Back to file '../cpu_core/cpu/cpu.v'.
Parsing included file '../cpu_core/pipeline_flush_unit/pipeline_flush_unit.v'.
Back to file '../cpu_core/cpu/cpu.v'.
Parsing included file '../cpu_core/pipeline_registers/pr_if_id.v'.
Back to file '../cpu_core/cpu/cpu.v'.
Parsing included file '../cpu_core/pipeline_registers/pr_id_ex.v'.
Back to file '../cpu_core/cpu/cpu.v'.
Parsing included file '../cpu_core/pipeline_registers/pr_ex_mem.v'.
Back to file '../cpu_core/cpu/cpu.v'.
Parsing included file '../cpu_core/pipeline_registers/pr_mem_wb.v'.
Back to file '../cpu_core/cpu/cpu.v'.
Parsing included file '../cpu_core/support_modules/plus_4_adder.v'.
Back to file '../cpu_core/cpu/cpu.v'.
Parsing included file '../cpu_core/support_modules/mux_4to1_32bit.v'.
Back to file '../cpu_core/cpu/cpu.v'.
Parsing included file '../cpu_core/support_modules/mux_2to1_32bit.v'.
Back to file '../cpu_core/cpu/cpu.v'.
Back to file '../node/node.v'.
Parsing included file '../cpu_core/instruction_memory/instruction_memory.v'.
Back to file '../node/node.v'.
Parsing included file '../cpu_core/data_memory/data_memory.v'.
Back to file '../node/node.v'.
Parsing included file '../network_interface/network_interface.v'.
Parsing included file '../../accelerator/network_interface/fifo.v'.
Back to file '../network_interface/network_interface.v'.
Back to file '../node/node.v'.
Parsing included file '../router/router.v'.
Back to file '../node/node.v'.
Parsing included file '../neuron_bank/neuron_bank.v'.
Parsing included file '../neuron_core/neuron_core.v'.
Back to file '../neuron_bank/neuron_bank.v'.
Back to file '../node/node.v'.
Back to file 'mesh.v'.
Back to file 'mesh_tb.v'.
Top Level Modules:
       mesh_tb
TimeScale is 1 ns / 100 ps
Starting vcs inline pass...
9 modules and 0 UDP read.
recompiling module Addition_Subtraction
recompiling module Multiplication
recompiling module Comparison
recompiling module neuron_core
recompiling module node
recompiling module mesh_tb
6 of 9 modules done
	However, due to incremental compilation, only 6 modules need to be compiled. 
Warning : License for product VCS-BASE-COMPILE will expire within 23 days, on: 31-dec-2025.

If you would like to temporarily disable this message, set 
 the VCS_LIC_EXPIRE_WARNING environment variable to the number of days
before expiration that you want this message to start (the minimum is 0).
rm -f _cuarc*.so _csrc*.so pre_vcsobj_*.so share_vcsobj_*.so
if [ -x ../simv ]; then chmod a-x ../simv; fi
g++  -o ../simv      -rdynamic  -Wl,-rpath='$ORIGIN'/simv.daidir -Wl,-rpath=./simv.daidir -Wl,-rpath=/storage/synopsys/vcs/W-2024.09-SP1/linux64/lib -L/storage/synopsys/vcs/W-2024.09-SP1/linux64/lib  -Wl,-rpath-link=./  /usr/lib64/libnuma.so.1   objs/amcQw_d.o   _299552_archive_1.so _prev_archive_1.so   SIM_l.o      rmapats_mop.o rmapats.o rmar.o rmar_nd.o  rmar_llvm_0_1.o rmar_llvm_0_0.o            -lvirsim -lerrorinf -lsnpsmalloc -lvfs    -lvcsnew -lsimprofile -luclinative /storage/synopsys/vcs/W-2024.09-SP1/linux64/lib/vcs_tls.o   -Wl,-whole-archive  -lvcsucli    -Wl,-no-whole-archive        _vcs_pli_stub_.o   /storage/synopsys/vcs/W-2024.09-SP1/linux64/lib/vcs_save_restore_new.o /storage/synopsys/verdi/W-2024.09-SP1/share/PLI/VCS/LINUX64/pli.a -ldl  -lc -lm -lpthread -ldl 
../simv up to date
CPU time: .668 seconds to compile + .272 seconds to elab + .194 seconds to link
Verdi KDB elaboration done and the database successfully generated
VCS compilation completed successfully
========== STEP 2: Run Simulation ==========
Info: [VCS_SAVE_RESTORE_INFO] ASLR (Address Space Layout Randomization) is detected on the machine. To enable $save functionality, ASLR will be switched off and simv re-executed.
Please use '-no_save' simv switch to avoid re-execution or '-suppress=ASLR_DETECTED_INFO' to suppress this message.
Chronologic VCS simulator copyright 1991-2024
Contains Synopsys proprietary information.
Compiler version W-2024.09-SP1_Full64; Runtime version W-2024.09-SP1_Full64;  Dec  9 19:07 2025
Warning : License for product VCS-BASE-RUNTIME will expire within 23 days, on: 31-dec-2025.

If you would like to temporarily disable this message, set 
 the VCS_LIC_EXPIRE_WARNING environment variable to the number of days
before expiration that you want this message to start (the minimum is 0).
*Verdi* Loading libsscore_vcs202409.so
*Verdi* : FSDB_GATE & FSDB_RTL is disabled because delta cycle dumping is set.
FSDB Dumper for VCS, Release Verdi_W-2024.09-SP1, Linux x86_64/64bit, 11/30/2024
(C) 1996 - 2024 by Synopsys, Inc.
*Verdi* FSDB WARNING: The FSDB file already exists. Overwriting the FSDB file may crash the programs that are using this file.
*Verdi* : Create FSDB file 'novas.fsdb'
*Verdi* : Enable dumping region information.
*Verdi* : Enable dumping glitch values.
*Verdi* : Enable dumping value change sequence.
*Verdi* : Begin traversing the scopes, layer (0).
*Verdi* : Enable +all dumping.
*Verdi* : End of traversing.
Time:                    0 | Node(0,0) PC: xxxxxxxx Instr: xxxxxxxx Busy: I=0 D=x Haz: x | Node(1,1) PC: xxxxxxxx Instr: xxxxxxxx
Time:                   50 | Node(0,0) PC: 00000000 Instr: 00100093 Busy: I=0 D=x Haz: x | Node(1,1) PC: 00000000 Instr: 00100093
Time:                   50 | Node(0,0) PC: 00000000 Instr: 00100093 Busy: I=0 D=0 Haz: 0 | Node(1,1) PC: 00000000 Instr: 00100093
Time:                  250 | Node(0,0) PC: 00000004 Instr: 00100093 Busy: I=0 D=0 Haz: 0 | Node(1,1) PC: 00000004 Instr: 00100093
Time:                  350 | Node(0,0) PC: 00000008 Instr: 00000113 Busy: I=0 D=0 Haz: 0 | Node(1,1) PC: 00000008 Instr: 00000113
Time:                  450 | Node(0,0) PC: 0000000c Instr: 00000293 Busy: I=0 D=0 Haz: 0 | Node(1,1) PC: 0000000c Instr: 00000293
Time:                  550 | Node(0,0) PC: 00000010 Instr: 00600393 Busy: I=0 D=0 Haz: 0 | Node(1,1) PC: 00000010 Instr: 00600393
Time:                  650 | Node(0,0) PC: 00000014 Instr: 002081b3 Busy: I=0 D=0 Haz: 0 | Node(1,1) PC: 00000014 Instr: 002081b3
Time:                  750 | Node(0,0) PC: 00000018 Instr: 00008113 Busy: I=0 D=0 Haz: 0 | Node(1,1) PC: 00000018 Instr: 00008113
Time:                  850 | Node(0,0) PC: 0000001c Instr: 00018093 Busy: I=0 D=0 Haz: 0 | Node(1,1) PC: 0000001c Instr: 00018093
Time:                  950 | Node(0,0) PC: 00000020 Instr: 0032a023 Busy: I=0 D=0 Haz: 0 | Node(1,1) PC: 00000020 Instr: 0032a023
Time:                 1050 | Node(0,0) PC: 00000024 Instr: 00428293 Busy: I=0 D=0 Haz: 0 | Node(1,1) PC: 00000024 Instr: 00428293
Time:                 1150 | Node(0,0) PC: 00000028 Instr: fff38393 Busy: I=0 D=0 Haz: 0 | Node(1,1) PC: 00000028 Instr: fff38393
Time:                 1250 | Node(0,0) PC: 0000002c Instr: 00038463 Busy: I=0 D=0 Haz: 0 | Node(1,1) PC: 0000002c Instr: 00038463
Time:                 1350 | Node(0,0) PC: 00000030 Instr: fe5ff06f Busy: I=0 D=0 Haz: 0 | Node(1,1) PC: 00000030 Instr: fe5ff06f
Time:                 1450 | Node(0,0) PC: 00000034 Instr: ffc2a303 Busy: I=0 D=0 Haz: 0 | Node(1,1) PC: 00000034 Instr: ffc2a303
Time:                 1550 | Node(0,0) PC: 00000038 Instr: 006300b3 Busy: I=0 D=0 Haz: 0 | Node(1,1) PC: 00000038 Instr: 006300b3
Time:                 1650 | Node(0,0) PC: 00000014 Instr: 002081b3 Busy: I=0 D=0 Haz: 0 | Node(1,1) PC: 00000014 Instr: 002081b3
Time:                 1750 | Node(0,0) PC: 00000018 Instr: 00008113 Busy: I=0 D=0 Haz: 0 | Node(1,1) PC: 00000018 Instr: 00008113
Time:                 1850 | Node(0,0) PC: 0000001c Instr: 00018093 Busy: I=0 D=0 Haz: 0 | Node(1,1) PC: 0000001c Instr: 00018093
Time:                 1950 | Node(0,0) PC: 00000020 Instr: 0032a023 Busy: I=0 D=0 Haz: 0 | Node(1,1) PC: 00000020 Instr: 0032a023
Time:                 2050 | Node(0,0) PC: 00000024 Instr: 00428293 Busy: I=0 D=0 Haz: 0 | Node(1,1) PC: 00000024 Instr: 00428293
Time:                 2150 | Node(0,0) PC: 00000028 Instr: fff38393 Busy: I=0 D=0 Haz: 0 | Node(1,1) PC: 00000028 Instr: fff38393
Time:                 2250 | Node(0,0) PC: 0000002c Instr: 00038463 Busy: I=0 D=0 Haz: 0 | Node(1,1) PC: 0000002c Instr: 00038463
Time:                 2350 | Node(0,0) PC: 00000030 Instr: fe5ff06f Busy: I=0 D=0 Haz: 0 | Node(1,1) PC: 00000030 Instr: fe5ff06f
Time:                 2450 | Node(0,0) PC: 00000034 Instr: ffc2a303 Busy: I=0 D=0 Haz: 0 | Node(1,1) PC: 00000034 Instr: ffc2a303
Time:                 2550 | Node(0,0) PC: 00000038 Instr: 006300b3 Busy: I=0 D=0 Haz: 0 | Node(1,1) PC: 00000038 Instr: 006300b3
Time:                 2650 | Node(0,0) PC: 00000014 Instr: 002081b3 Busy: I=0 D=0 Haz: 0 | Node(1,1) PC: 00000014 Instr: 002081b3
Time:                 2750 | Node(0,0) PC: 00000018 Instr: 00008113 Busy: I=0 D=0 Haz: 0 | Node(1,1) PC: 00000018 Instr: 00008113
Time:                 2850 | Node(0,0) PC: 0000001c Instr: 00018093 Busy: I=0 D=0 Haz: 0 | Node(1,1) PC: 0000001c Instr: 00018093
Time:                 2950 | Node(0,0) PC: 00000020 Instr: 0032a023 Busy: I=0 D=0 Haz: 0 | Node(1,1) PC: 00000020 Instr: 0032a023
Time:                 3050 | Node(0,0) PC: 00000024 Instr: 00428293 Busy: I=0 D=0 Haz: 0 | Node(1,1) PC: 00000024 Instr: 00428293
Time:                 3150 | Node(0,0) PC: 00000028 Instr: fff38393 Busy: I=0 D=0 Haz: 0 | Node(1,1) PC: 00000028 Instr: fff38393
Time:                 3250 | Node(0,0) PC: 0000002c Instr: 00038463 Busy: I=0 D=0 Haz: 0 | Node(1,1) PC: 0000002c Instr: 00038463
Time:                 3350 | Node(0,0) PC: 00000030 Instr: fe5ff06f Busy: I=0 D=0 Haz: 0 | Node(1,1) PC: 00000030 Instr: fe5ff06f
Time:                 3450 | Node(0,0) PC: 00000034 Instr: ffc2a303 Busy: I=0 D=0 Haz: 0 | Node(1,1) PC: 00000034 Instr: ffc2a303
Time:                 3550 | Node(0,0) PC: 00000038 Instr: 006300b3 Busy: I=0 D=0 Haz: 0 | Node(1,1) PC: 00000038 Instr: 006300b3
Time:                 3650 | Node(0,0) PC: 00000014 Instr: 002081b3 Busy: I=0 D=0 Haz: 0 | Node(1,1) PC: 00000014 Instr: 002081b3
Time:                 3750 | Node(0,0) PC: 00000018 Instr: 00008113 Busy: I=0 D=0 Haz: 0 | Node(1,1) PC: 00000018 Instr: 00008113
Time:                 3850 | Node(0,0) PC: 0000001c Instr: 00018093 Busy: I=0 D=0 Haz: 0 | Node(1,1) PC: 0000001c Instr: 00018093
Time:                 3950 | Node(0,0) PC: 00000020 Instr: 0032a023 Busy: I=0 D=0 Haz: 0 | Node(1,1) PC: 00000020 Instr: 0032a023
Time:                 4050 | Node(0,0) PC: 00000024 Instr: 00428293 Busy: I=0 D=0 Haz: 0 | Node(1,1) PC: 00000024 Instr: 00428293
Time:                 4150 | Node(0,0) PC: 00000028 Instr: fff38393 Busy: I=0 D=0 Haz: 0 | Node(1,1) PC: 00000028 Instr: fff38393
Time:                 4250 | Node(0,0) PC: 0000002c Instr: 00038463 Busy: I=0 D=0 Haz: 0 | Node(1,1) PC: 0000002c Instr: 00038463
Time:                 4350 | Node(0,0) PC: 00000030 Instr: fe5ff06f Busy: I=0 D=0 Haz: 0 | Node(1,1) PC: 00000030 Instr: fe5ff06f
Time:                 4450 | Node(0,0) PC: 00000034 Instr: ffc2a303 Busy: I=0 D=0 Haz: 0 | Node(1,1) PC: 00000034 Instr: ffc2a303
Time:                 4550 | Node(0,0) PC: 00000038 Instr: 006300b3 Busy: I=0 D=0 Haz: 0 | Node(1,1) PC: 00000038 Instr: 006300b3
Time:                 4650 | Node(0,0) PC: 00000014 Instr: 002081b3 Busy: I=0 D=0 Haz: 0 | Node(1,1) PC: 00000014 Instr: 002081b3
Time:                 4750 | Node(0,0) PC: 00000018 Instr: 00008113 Busy: I=0 D=0 Haz: 0 | Node(1,1) PC: 00000018 Instr: 00008113
Time:                 4850 | Node(0,0) PC: 0000001c Instr: 00018093 Busy: I=0 D=0 Haz: 0 | Node(1,1) PC: 0000001c Instr: 00018093
Time:                 4950 | Node(0,0) PC: 00000020 Instr: 0032a023 Busy: I=0 D=0 Haz: 0 | Node(1,1) PC: 00000020 Instr: 0032a023
Time:                 5050 | Node(0,0) PC: 00000024 Instr: 00428293 Busy: I=0 D=0 Haz: 0 | Node(1,1) PC: 00000024 Instr: 00428293
Time:                 5150 | Node(0,0) PC: 00000028 Instr: fff38393 Busy: I=0 D=0 Haz: 0 | Node(1,1) PC: 00000028 Instr: fff38393
Time:                 5250 | Node(0,0) PC: 0000002c Instr: 00038463 Busy: I=0 D=0 Haz: 0 | Node(1,1) PC: 0000002c Instr: 00038463
Time:                 5350 | Node(0,0) PC: 00000030 Instr: fe5ff06f Busy: I=0 D=0 Haz: 0 | Node(1,1) PC: 00000030 Instr: fe5ff06f
Time:                 5450 | Node(0,0) PC: 00000034 Instr: ffc2a303 Busy: I=0 D=0 Haz: 0 | Node(1,1) PC: 00000034 Instr: ffc2a303
Time:                 5550 | Node(0,0) PC: 00000038 Instr: 006300b3 Busy: I=0 D=0 Haz: 0 | Node(1,1) PC: 00000038 Instr: 006300b3
Time:                 5650 | Node(0,0) PC: 00000014 Instr: 002081b3 Busy: I=0 D=0 Haz: 0 | Node(1,1) PC: 00000014 Instr: 002081b3
Time:                 5750 | Node(0,0) PC: 00000018 Instr: 00008113 Busy: I=0 D=0 Haz: 0 | Node(1,1) PC: 00000018 Instr: 00008113
Time:                 5850 | Node(0,0) PC: 0000001c Instr: 00018093 Busy: I=0 D=0 Haz: 0 | Node(1,1) PC: 0000001c Instr: 00018093
Time:                 5950 | Node(0,0) PC: 00000020 Instr: 0032a023 Busy: I=0 D=0 Haz: 0 | Node(1,1) PC: 00000020 Instr: 0032a023
Time:                 6050 | Node(0,0) PC: 00000024 Instr: 00428293 Busy: I=0 D=0 Haz: 0 | Node(1,1) PC: 00000024 Instr: 00428293
Time:                 6150 | Node(0,0) PC: 00000028 Instr: fff38393 Busy: I=0 D=0 Haz: 0 | Node(1,1) PC: 00000028 Instr: fff38393
Time:                 6250 | Node(0,0) PC: 0000002c Instr: 00038463 Busy: I=0 D=0 Haz: 0 | Node(1,1) PC: 0000002c Instr: 00038463
Time:                 6350 | Node(0,0) PC: 00000030 Instr: fe5ff06f Busy: I=0 D=0 Haz: 0 | Node(1,1) PC: 00000030 Instr: fe5ff06f
Time:                 6450 | Node(0,0) PC: 00000034 Instr: ffc2a303 Busy: I=0 D=0 Haz: 0 | Node(1,1) PC: 00000034 Instr: ffc2a303
Time:                 6650 | Node(0,0) PC: 00000038 Instr: 006300b3 Busy: I=0 D=0 Haz: 0 | Node(1,1) PC: 00000038 Instr: 006300b3
Time:                 6750 | Node(0,0) PC: 0000003c Instr: fc9ff06f Busy: I=0 D=0 Haz: 0 | Node(1,1) PC: 0000003c Instr: fc9ff06f
Time:                 6750 | Node(0,0) PC: 0000003c Instr: fc9ff06f Busy: I=0 D=0 Haz: 1 | Node(1,1) PC: 0000003c Instr: fc9ff06f
Time:                 6850 | Node(0,0) PC: 0000003c Instr: fc9ff06f Busy: I=0 D=0 Haz: 0 | Node(1,1) PC: 0000003c Instr: fc9ff06f
Time:                 6950 | Node(0,0) PC: 00000040 Instr: 00000000 Busy: I=0 D=0 Haz: 0 | Node(1,1) PC: 00000040 Instr: 00000000
Time:                 7050 | Node(0,0) PC: 00000044 Instr: 00000000 Busy: I=0 D=0 Haz: 0 | Node(1,1) PC: 00000044 Instr: 00000000
Time:                 7150 | Node(0,0) PC: 00000004 Instr: 00100093 Busy: I=0 D=0 Haz: 0 | Node(1,1) PC: 00000004 Instr: 00100093
Time:                 7250 | Node(0,0) PC: 00000008 Instr: 00000113 Busy: I=0 D=0 Haz: 0 | Node(1,1) PC: 00000008 Instr: 00000113
Time:                 7350 | Node(0,0) PC: 0000000c Instr: 00000293 Busy: I=0 D=0 Haz: 0 | Node(1,1) PC: 0000000c Instr: 00000293
Time:                 7450 | Node(0,0) PC: 00000010 Instr: 00600393 Busy: I=0 D=0 Haz: 0 | Node(1,1) PC: 00000010 Instr: 00600393
Time:                 7550 | Node(0,0) PC: 00000014 Instr: 002081b3 Busy: I=0 D=0 Haz: 0 | Node(1,1) PC: 00000014 Instr: 002081b3
Time:                 7650 | Node(0,0) PC: 00000018 Instr: 00008113 Busy: I=0 D=0 Haz: 0 | Node(1,1) PC: 00000018 Instr: 00008113
Time:                 7750 | Node(0,0) PC: 0000001c Instr: 00018093 Busy: I=0 D=0 Haz: 0 | Node(1,1) PC: 0000001c Instr: 00018093
Time:                 7850 | Node(0,0) PC: 00000020 Instr: 0032a023 Busy: I=0 D=0 Haz: 0 | Node(1,1) PC: 00000020 Instr: 0032a023
Time:                 7950 | Node(0,0) PC: 00000024 Instr: 00428293 Busy: I=0 D=0 Haz: 0 | Node(1,1) PC: 00000024 Instr: 00428293
Time:                 8050 | Node(0,0) PC: 00000028 Instr: fff38393 Busy: I=0 D=0 Haz: 0 | Node(1,1) PC: 00000028 Instr: fff38393
Time:                 8150 | Node(0,0) PC: 0000002c Instr: 00038463 Busy: I=0 D=0 Haz: 0 | Node(1,1) PC: 0000002c Instr: 00038463
Time:                 8250 | Node(0,0) PC: 00000030 Instr: fe5ff06f Busy: I=0 D=0 Haz: 0 | Node(1,1) PC: 00000030 Instr: fe5ff06f
Time:                 8350 | Node(0,0) PC: 00000034 Instr: ffc2a303 Busy: I=0 D=0 Haz: 0 | Node(1,1) PC: 00000034 Instr: ffc2a303
Time:                 8450 | Node(0,0) PC: 00000038 Instr: 006300b3 Busy: I=0 D=0 Haz: 0 | Node(1,1) PC: 00000038 Instr: 006300b3
Time:                 8550 | Node(0,0) PC: 00000014 Instr: 002081b3 Busy: I=0 D=0 Haz: 0 | Node(1,1) PC: 00000014 Instr: 002081b3
Time:                 8650 | Node(0,0) PC: 00000018 Instr: 00008113 Busy: I=0 D=0 Haz: 0 | Node(1,1) PC: 00000018 Instr: 00008113
Time:                 8750 | Node(0,0) PC: 0000001c Instr: 00018093 Busy: I=0 D=0 Haz: 0 | Node(1,1) PC: 0000001c Instr: 00018093
Time:                 8850 | Node(0,0) PC: 00000020 Instr: 0032a023 Busy: I=0 D=0 Haz: 0 | Node(1,1) PC: 00000020 Instr: 0032a023
Time:                 8950 | Node(0,0) PC: 00000024 Instr: 00428293 Busy: I=0 D=0 Haz: 0 | Node(1,1) PC: 00000024 Instr: 00428293
Time:                 9050 | Node(0,0) PC: 00000028 Instr: fff38393 Busy: I=0 D=0 Haz: 0 | Node(1,1) PC: 00000028 Instr: fff38393
Time:                 9150 | Node(0,0) PC: 0000002c Instr: 00038463 Busy: I=0 D=0 Haz: 0 | Node(1,1) PC: 0000002c Instr: 00038463
Time:                 9250 | Node(0,0) PC: 00000030 Instr: fe5ff06f Busy: I=0 D=0 Haz: 0 | Node(1,1) PC: 00000030 Instr: fe5ff06f
Time:                 9350 | Node(0,0) PC: 00000034 Instr: ffc2a303 Busy: I=0 D=0 Haz: 0 | Node(1,1) PC: 00000034 Instr: ffc2a303
Time:                 9450 | Node(0,0) PC: 00000038 Instr: 006300b3 Busy: I=0 D=0 Haz: 0 | Node(1,1) PC: 00000038 Instr: 006300b3
Time:                 9550 | Node(0,0) PC: 00000014 Instr: 002081b3 Busy: I=0 D=0 Haz: 0 | Node(1,1) PC: 00000014 Instr: 002081b3
Time:                 9650 | Node(0,0) PC: 00000018 Instr: 00008113 Busy: I=0 D=0 Haz: 0 | Node(1,1) PC: 00000018 Instr: 00008113
Time:                 9750 | Node(0,0) PC: 0000001c Instr: 00018093 Busy: I=0 D=0 Haz: 0 | Node(1,1) PC: 0000001c Instr: 00018093
Time:                 9850 | Node(0,0) PC: 00000020 Instr: 0032a023 Busy: I=0 D=0 Haz: 0 | Node(1,1) PC: 00000020 Instr: 0032a023
Time:                 9950 | Node(0,0) PC: 00000024 Instr: 00428293 Busy: I=0 D=0 Haz: 0 | Node(1,1) PC: 00000024 Instr: 00428293
Time:                10050 | Node(0,0) PC: 00000028 Instr: fff38393 Busy: I=0 D=0 Haz: 0 | Node(1,1) PC: 00000028 Instr: fff38393
Time:                10150 | Node(0,0) PC: 0000002c Instr: 00038463 Busy: I=0 D=0 Haz: 0 | Node(1,1) PC: 0000002c Instr: 00038463
$finish called from file "mesh_tb.v", line 41.
$finish at simulation time                10200
           V C S   S i m u l a t i o n   R e p o r t 
Time: 1020000 ps
CPU Time:      0.300 seconds;       Data structure size:   2.3Mb
Tue Dec  9 19:07:29 2025
Simulation completed successfully
Library directory 'cpu_LIB' already exists.
Removing existing library directory before synthesis to avoid errors...
========== STEP 3: RTL Synthesis ==========
Running with proper PrimeTime shell command...



                               RTL Architect (TM)

               Version V-2023.12-SP5-3 for linux64 - Dec 17, 2024
                           Base build date 11/18/2024

                    Copyright (c) 1988 - 2024 Synopsys, Inc.
   This software and the associated documentation are proprietary to Synopsys,
 Inc. This software may only be used in accordance with the terms and conditions
 of a written license agreement with Synopsys, Inc. All other use, reproduction,
   or distribution of this software is strictly prohibited.  Licensed Products
     communicate with Synopsys servers for the purpose of providing software
    updates, detecting software piracy and verifying that customers are using
    Licensed Products in conformity with the applicable License Key for such
  Licensed Products. Synopsys will use information gathered in connection with
    this process to deliver software updates and pursue software pirates and
                                   infringers.

 Inclusivity & Diversity - Visit SolvNetPlus to read the "Synopsys Statement on
            Inclusivity and Diversity" (Refer to article 000036315 at
                        https://solvnetplus.synopsys.com)
 
#!/bin/tcsh -f
# =============================================================================
# RISC-V CPU RTL Analysis and Synthesis Script for SKY130
# =============================================================================
# Description: This script performs RTL analysis, synthesis, and power 
#              analysis for the RISC-V CPU using SKY130 technology
# Author: CO502 Group 1
# Technology: SKY130 130nm Process
# =============================================================================
# Load shared configuration
source config.tcl
Loading shared configuration...
Using environment TEMP_RESULTS_DIR: temp_results_20251209_190720
Configuration loaded successfully
  Design: mesh
  Technology: SKY130 130nm
  Cores: 8
  Results directory: temp_results_20251209_190720
# -----------------------------------------------------------------------------
# Configuration and Setup
# -----------------------------------------------------------------------------
puts "========== Starting RTL Analysis and Synthesis =========="
========== Starting RTL Analysis and Synthesis ==========
puts "Technology: SKY130 130nm"
Technology: SKY130 130nm
puts "Design: RISC-V CPU Pipeline"
Design: RISC-V CPU Pipeline
# Configure mismatch handling
set_current_mismatch_config auto_fix 
1
set_attribute [get_mismatch_types missing_logical_reference] current_repair(auto_fix) create_blackbox
Warning: Changing current repair(handler) for a mismatch type in between a flow is not recommended. (DMM-011)
{missing_logical_reference}
# Set host options for parallel processing
set_host_options -max_cores $CORES
1
puts "Using $CORES cores for power analysis"
Using 8 cores for power analysis
# Application options
set_app_options -list {plan.macro.allow_unmapped_design true}
plan.macro.allow_unmapped_design true
# -----------------------------------------------------------------------------
# Library Setup
# -----------------------------------------------------------------------------
puts "========== Setting up SKY130 Libraries =========="
========== Setting up SKY130 Libraries ==========
# Search paths for libraries and source files
set search_path $SEARCH_PATHS
* ./ ../../accelerator/mesh ../../accelerator/cpu_core/cpu ../../accelerator/cpu_core/ ../../accelerator/cpu_core/fpu/ ../../accelerator/network_interface  /tech/sky130/libs/sky130_library/ndm
# Create design library with SKY130 reference libraries
create_lib $LIB_NAME \
    -ref_libs "$REF_LIBS" \
    -technology $TECH_TF
Information: The command 'create_lib' cleared the undo history. (UNDO-016)
Warning: sky130_fd_sc_hd.tf line 26, unsupported syntax 'fatWireViaKeepoutMode' in 'Technology' section. It will be ignored. (TECH-002)
Warning: Section DesignRule '' is missing the attribute 'stackable'. (sky130_fd_sc_hd.tf line 846) (TECH-026)
Warning: Layer 'via4/met4' is missing the attribute 'maxStackLevel'. (sky130_fd_sc_hd.tf line 846) (TECH-026)
Warning: Section DesignRule '' is missing the attribute 'stackable'. (sky130_fd_sc_hd.tf line 854) (TECH-026)
Warning: Layer 'via4/met5' is missing the attribute 'maxStackLevel'. (sky130_fd_sc_hd.tf line 854) (TECH-026)
Warning: Section DesignRule '' is missing the attribute 'stackable'. (sky130_fd_sc_hd.tf line 862) (TECH-026)
Warning: Layer 'via3/met3' is missing the attribute 'maxStackLevel'. (sky130_fd_sc_hd.tf line 862) (TECH-026)
Warning: Section DesignRule '' is missing the attribute 'stackable'. (sky130_fd_sc_hd.tf line 870) (TECH-026)
Warning: Layer 'via3/met4' is missing the attribute 'maxStackLevel'. (sky130_fd_sc_hd.tf line 870) (TECH-026)
Warning: Section DesignRule '' is missing the attribute 'stackable'. (sky130_fd_sc_hd.tf line 878) (TECH-026)
Warning: Layer 'via2/met2' is missing the attribute 'maxStackLevel'. (sky130_fd_sc_hd.tf line 878) (TECH-026)
Warning: Section DesignRule '' is missing the attribute 'stackable'. (sky130_fd_sc_hd.tf line 886) (TECH-026)
Warning: Layer 'via2/met3' is missing the attribute 'maxStackLevel'. (sky130_fd_sc_hd.tf line 886) (TECH-026)
Warning: Section DesignRule '' is missing the attribute 'stackable'. (sky130_fd_sc_hd.tf line 894) (TECH-026)
Warning: Layer 'via/met1' is missing the attribute 'maxStackLevel'. (sky130_fd_sc_hd.tf line 894) (TECH-026)
